SESS timestamp=1396526.511091357 pid=95125 sid=88c8e665f0354084 exename="/home/dcslab/rocksdb/yschoi/example"
TASK timestamp=1396526.511339409 tid=95125 pid=95125
TASK timestamp=1396526.516342632 tid=95132 pid=95125
TASK timestamp=1396526.516649628 tid=95133 pid=95125
TASK timestamp=1396526.520431689 tid=95134 pid=95125
TASK timestamp=1396526.520662691 tid=95135 pid=95125
TASK timestamp=1396526.521026716 tid=95136 pid=95125
TASK timestamp=1396526.521317758 tid=95137 pid=95125
TASK timestamp=1396526.522770934 tid=95138 pid=95125
TASK timestamp=1396526.522833757 tid=95139 pid=95125
TASK timestamp=1396526.523272955 tid=95140 pid=95125
TASK timestamp=1396526.523541328 tid=95141 pid=95125
TASK timestamp=1396526.523848516 tid=95142 pid=95125
TASK timestamp=1396526.524010440 tid=95143 pid=95125
TASK timestamp=1396526.524334142 tid=95144 pid=95125
TASK timestamp=1396526.524657842 tid=95145 pid=95125
TASK timestamp=1396526.525057706 tid=95146 pid=95125
TASK timestamp=1396526.525394685 tid=95147 pid=95125
TASK timestamp=1396526.526124134 tid=95148 pid=95125
TASK timestamp=1396526.587702213 tid=95149 pid=95125
